Voltage(V), Photocurrent
-5, 3.178563190944677e-07
-10, 5.329490779312121e-07
-15, 2.190867602618744e-07
-20, 3.1063320975764187e-07
-25, 3.0541890115089046e-06
-40, 3.1514647924871e-06
-50, 7.2948237515633475e-06
10, Help!!! 
15, 1.645522907326703e-06
20, 1.7480330676015419e-06
25, 1.5400787123667125e-06
40, 1.2977612644579526e-06
50, 2.1682477382715007e-06







