Time (s)	Current (A)
1.83600E+0	-5.62560E-6
2.73500E+0	-3.44200E-6
3.63500E+0	-3.05650E-6
4.53400E+0	-3.02030E-6
5.43400E+0	-3.05750E-6
6.33300E+0	-3.12680E-6
7.23300E+0	-3.19360E-6
8.13200E+0	-3.24900E-6
9.03200E+0	-3.29710E-6
9.93100E+0	-3.35650E-6
1.08310E+1	-3.39610E-6
1.17300E+1	-3.44130E-6
1.26300E+1	-3.50300E-6
1.35290E+1	-3.56480E-6
1.44290E+1	-3.64430E-6
1.53280E+1	-3.73240E-6
1.62280E+1	-3.82360E-6
1.71270E+1	-3.92770E-6
1.80270E+1	-4.04960E-6
1.89260E+1	-4.16630E-6
1.98260E+1	-4.27770E-6
2.07250E+1	-4.38440E-6
2.16250E+1	-4.49250E-6
2.25240E+1	-4.60180E-6
2.34240E+1	-4.70290E-6
2.43230E+1	-4.80750E-6
2.52230E+1	-4.91720E-6
2.61220E+1	-5.03070E-6
2.70220E+1	-5.13500E-6
2.79210E+1	-5.24550E-6
2.88210E+1	-8.13360E-6
2.97200E+1	-7.99440E-6
3.06200E+1	-7.77550E-6
3.15190E+1	-7.75020E-6
3.24190E+1	-7.79450E-6
3.33180E+1	-7.86040E-6
3.42180E+1	-7.94080E-6
3.51170E+1	-8.03210E-6
3.60170E+1	-8.13170E-6
3.69160E+1	-8.23170E-6
3.78160E+1	-8.32210E-6
3.87150E+1	-8.42470E-6
3.96150E+1	-8.52840E-6
4.05140E+1	-8.41720E-6
4.14140E+1	-5.82690E-6
4.23130E+1	-6.44220E-6
4.32130E+1	-6.79660E-6
4.41120E+1	-6.98620E-6
4.50120E+1	-7.11540E-6
4.59110E+1	-7.21780E-6
4.68110E+1	-7.30440E-6
4.77100E+1	-7.38760E-6
4.86100E+1	-7.46130E-6
4.95090E+1	-7.53860E-6
5.04090E+1	-7.60800E-6
5.13080E+1	-7.67500E-6
5.22080E+1	-7.74390E-6
5.40070E+1	-1.13490E-5
5.49040E+1	-1.06920E-5
5.58020E+1	-1.04140E-5
5.66990E+1	-1.03470E-5
5.75970E+1	-1.03470E-5
5.84940E+1	-1.03670E-5
5.93920E+1	-1.04090E-5
6.02890E+1	-1.04550E-5
6.11870E+1	-1.05060E-5
6.20840E+1	-1.05530E-5
6.29820E+1	-1.06000E-5
6.38790E+1	-1.06530E-5
6.47770E+1	-1.07140E-5
6.56740E+1	-1.07690E-5
6.65720E+1	-1.08140E-5
6.74690E+1	-1.08610E-5
6.90850E+1	-7.65500E-6
6.99850E+1	-8.31380E-6
7.08840E+1	-8.70170E-6
7.17840E+1	-8.88670E-6
7.26830E+1	-8.98850E-6
7.35830E+1	-9.05900E-6
7.44820E+1	-9.11490E-6
7.53820E+1	-9.15610E-6
7.62810E+1	-9.20480E-6
7.71810E+1	-9.24990E-6
7.80800E+1	-9.28730E-6
7.89800E+1	-9.32920E-6
7.98790E+1	-9.36790E-6
8.07790E+1	-9.40250E-6
8.25730E+1	-1.31300E-5
8.34700E+1	-1.25240E-5
8.43680E+1	-1.21280E-5
8.52650E+1	-1.19850E-5
8.61630E+1	-1.19250E-5
8.70600E+1	-1.19040E-5
8.79580E+1	-1.18990E-5
8.88550E+1	-1.19000E-5
8.97530E+1	-1.19060E-5
9.06500E+1	-1.19310E-5
9.15480E+1	-1.19530E-5
9.24450E+1	-1.19760E-5
9.33430E+1	-1.19850E-5
9.42400E+1	-1.19980E-5
9.51380E+1	-1.20190E-5
9.60350E+1	-1.20380E-5
9.69330E+1	-1.20570E-5
9.81170E+1	-8.64650E-6
9.90160E+1	-9.36650E-6
9.99160E+1	-9.72500E-6
1.00815E+2	-9.88960E-6
1.02368E+2	-1.00260E-5
1.03266E+2	-1.00740E-5
1.04163E+2	-1.01060E-5
1.05061E+2	-1.01430E-5
1.05958E+2	-1.01730E-5
1.06856E+2	-1.01880E-5
1.07753E+2	-1.02050E-5
1.08651E+2	-1.02260E-5
1.09548E+2	-1.02400E-5
1.10446E+2	-1.02600E-5
1.11343E+2	-1.02770E-5
1.12241E+2	-1.02950E-5
