Time (s)	Current (A)
9.40000E-1	5.87580E-4
1.83800E+0	6.25050E-4
2.73500E+0	6.42750E-4
3.63300E+0	6.52100E-4
4.53000E+0	6.56770E-4
5.42800E+0	6.58860E-4
6.32500E+0	6.59830E-4
7.22300E+0	6.60330E-4
8.12000E+0	6.60280E-4
9.01800E+0	6.59490E-4
9.91500E+0	6.58240E-4
1.08130E+1	6.56680E-4
1.17100E+1	6.54980E-4
1.26080E+1	6.53430E-4
1.35050E+1	6.51820E-4
1.44030E+1	6.49660E-4
1.53000E+1	6.47750E-4
1.61980E+1	6.46170E-4
1.70950E+1	6.44680E-4
1.79930E+1	6.43440E-4
1.88900E+1	6.42420E-4
1.97880E+1	6.41310E-4
2.06850E+1	6.40100E-4
2.15830E+1	6.39080E-4
2.24800E+1	6.37920E-4
2.33780E+1	6.37050E-4
2.42750E+1	6.36180E-4
2.51730E+1	6.35390E-4
2.60700E+1	6.34840E-4
2.69680E+1	6.34300E-4
2.78650E+1	6.34010E-4
2.87630E+1	6.34070E-4
2.96600E+1	6.35980E-4
3.05580E+1	6.36290E-4
3.14550E+1	6.37000E-4
3.23530E+1	6.37860E-4
3.32500E+1	6.39060E-4
3.41480E+1	6.40430E-4
3.50450E+1	6.42140E-4
3.59430E+1	6.43950E-4
3.68400E+1	6.45670E-4
3.77380E+1	6.47470E-4
3.86350E+1	6.49360E-4
3.95330E+1	6.51020E-4
4.04300E+1	6.53120E-4
4.13280E+1	6.55310E-4
4.22250E+1	6.55970E-4
4.31230E+1	6.57760E-4
4.40200E+1	6.59670E-4
4.49180E+1	6.61650E-4
4.58150E+1	6.63410E-4
4.67130E+1	6.65210E-4
4.76100E+1	6.66690E-4
4.85080E+1	6.67950E-4
4.94050E+1	6.68940E-4
5.03030E+1	6.69910E-4
5.12000E+1	6.71890E-4
5.20980E+1	6.72500E-4
5.29950E+1	6.72820E-4
5.38930E+1	6.73180E-4
5.47900E+1	6.73530E-4
5.56880E+1	6.73790E-4
5.65850E+1	6.74100E-4
5.74830E+1	6.74250E-4
5.83800E+1	6.74320E-4
5.92780E+1	6.74320E-4
6.01750E+1	6.73990E-4
6.10730E+1	6.73660E-4
6.19700E+1	6.73360E-4
6.28680E+1	6.72940E-4
6.37650E+1	6.72600E-4
6.46630E+1	6.71730E-4
6.55600E+1	6.70980E-4
6.64580E+1	6.70480E-4
6.73550E+1	6.69540E-4
6.82530E+1	6.68540E-4
6.91500E+1	6.67570E-4
7.00480E+1	6.66600E-4
7.09450E+1	6.65490E-4
7.18430E+1	6.64310E-4
7.27400E+1	6.63290E-4
7.36380E+1	6.62150E-4
7.45350E+1	6.61010E-4
7.54330E+1	6.59770E-4
7.63300E+1	6.58760E-4
7.72280E+1	6.57810E-4
7.81250E+1	6.56900E-4
7.90230E+1	6.56880E-4
7.99200E+1	6.55590E-4
8.08180E+1	6.54410E-4
8.17150E+1	6.53350E-4
8.26130E+1	6.52330E-4
8.35100E+1	6.51400E-4
8.44080E+1	6.50350E-4
8.53050E+1	6.49550E-4
8.62030E+1	6.48780E-4
8.71000E+1	6.47920E-4
8.79980E+1	6.47070E-4
8.88950E+1	6.46270E-4
8.97930E+1	6.45490E-4
9.06900E+1	6.44740E-4
9.15880E+1	6.43710E-4
9.24850E+1	6.42660E-4
9.33830E+1	6.41400E-4
9.42800E+1	6.39500E-4
9.51780E+1	6.38530E-4
9.60750E+1	6.37760E-4
9.69730E+1	6.37400E-4
9.78700E+1	6.36820E-4
9.87680E+1	6.36180E-4
9.96650E+1	6.35500E-4
1.00563E+2	6.35070E-4
1.01460E+2	6.34770E-4
1.02358E+2	6.34170E-4
1.03255E+2	6.33680E-4
1.04153E+2	6.33310E-4
1.05050E+2	6.33210E-4
1.05948E+2	6.33060E-4
1.06845E+2	6.33000E-4
1.07743E+2	6.32920E-4
