Voltage,V 	 Current,A
-1.00000300000000	-0.00038927000000
-0.95918100000000	-0.00013669700000
-0.91837000000000	-0.00005214100000
-0.87754700000000	-0.00002162840000
-0.83672600000000	-0.00001003210000
-0.79592200000000	-0.00000520469000
-0.75510000000000	-0.00000288450000
-0.71429000000000	-0.00000165040000
-0.67347100000000	-0.00000094601000
-0.63265000000000	-0.00000053030000
-0.59184000000000	-0.00000028401000
-0.55101900000000	-0.00000014652000
-0.51020000000000	-0.00000007683000
-0.46939100000000	-0.00000004432000
-0.42857200000000	-0.00000002986000
-0.38776000000000	-0.00000002266000
-0.34694100000000	-0.00000001861000
-0.30612000000000	-0.00000001357000
-0.26531000000000	-0.00000001338100
-0.22449100000000	-0.00000000838400
-0.18367000000000	-0.00000000552000
-0.14285500000000	0.00000000077500
-0.10203900000000	0.00000000162700
-0.06121900000000	0.00000000406700
-0.02040800000000	0.00000000549700
0.02040900000000	0.00000000475400
0.06122300000000	0.00000001159400
0.10204100000000	0.00000001251900
0.14286100000000	0.00000001735900
0.18367100000000	0.00000001951000
0.22449100000000	0.00000001730100
0.26531000000000	0.00000002003100
0.30612100000000	0.00000002654700
0.34694100000000	0.00000002931800
0.38776100000000	0.00000003095800
0.42857300000000	0.00000003702100
0.46939300000000	0.00000003857900
0.51020200000000	0.00000004230600
0.55102100000000	0.00000004382700
0.59184100000000	0.00000004860000
0.63265100000000	0.00000005159700
0.67347200000000	0.00000005654700
0.71429200000000	0.00000006108300
0.75510100000000	0.00000006296400
0.79592100000000	0.00000006858000
0.83673100000000	0.00000007064300
0.87755200000000	0.00000007713800
0.91837000000000	0.00000007935000
0.95918000000000	0.00000008444000
1.00000200000000	0.00000009151700
0.99999900000000	0.00000008570100
0.95918000000000	0.00000008142900
0.91837100000000	0.00000007514700
0.87754400000000	0.00000006441200
0.83672900000000	0.00000006139600
0.79591700000000	0.00000005720700
0.75509700000000	0.00000005195900
0.71429200000000	0.00000005404900
0.67346900000000	0.00000004531400
0.63264900000000	0.00000004121000
0.59183800000000	0.00000003882800
0.55101800000000	0.00000003348100
0.51020000000000	0.00000003162100
0.46938900000000	0.00000002610200
0.42856900000000	0.00000002450400
0.38775900000000	0.00000002140600
0.34693800000000	0.00000001719700
0.30611700000000	0.00000001414100
0.26530700000000	0.00000001262500
0.22448900000000	0.00000000959400
0.18366700000000	0.00000000516500
0.14285700000000	0.00000000276300
0.10204200000000	0.00000000563500
0.06121800000000	-0.00000000187500
0.02040800000000	-0.00000000432000
-0.02041000000000	-0.00000000244500
-0.06122300000000	-0.00000001009200
-0.10204300000000	-0.00000001369100
-0.14285900000000	-0.00000001079000
-0.18367200000000	-0.00000001737700
-0.22449500000000	-0.00000002470500
-0.26531200000000	-0.00000002565200
-0.30612300000000	-0.00000002909900
-0.34694300000000	-0.00000003303200
-0.38776400000000	-0.00000003777300
-0.42857300000000	-0.00000004352800
-0.46939300000000	-0.00000004860800
-0.51020300000000	-0.00000005794300
-0.55102300000000	-0.00000007311700
-0.59184300000000	-0.00000009729100
-0.63265200000000	-0.00000015001100
-0.67347700000000	-0.00000030699700
-0.71429000000000	-0.00000067699000
-0.75510100000000	-0.00000170925000
-0.79592300000000	-0.00000437905000
-0.83673500000000	-0.00001096170000
-0.87756600000000	-0.00002705880000
-0.91840900000000	-0.00006357270000
-0.95918100000000	-0.00013872600000
-1.00000200000000	-0.00027960000000
