Voltage,V 	 Current,A
-0.99998900000000	-0.00017350400000
-0.95918100000000	-0.00010500400000
-0.91837000000000	-0.00005101200000
-0.87754900000000	-0.00002635330000
-0.83672000000000	-0.00001463550000
-0.79591600000000	-0.00000890940000
-0.75509300000000	-0.00000591610000
-0.71428900000000	-0.00000424799000
-0.67346900000000	-0.00000314287000
-0.63264900000000	-0.00000241685000
-0.59183800000000	-0.00000191312000
-0.55101800000000	-0.00000154513000
-0.51019800000000	-0.00000126994000
-0.46938800000000	-0.00000103403000
-0.42856900000000	-0.00000084193000
-0.38775800000000	-0.00000069234000
-0.34694000000000	-0.00000055242000
-0.30611900000000	-0.00000044537000
-0.26530800000000	-0.00000034911000
-0.22448900000000	-0.00000025155000
-0.18367100000000	-0.00000018705000
-0.14285900000000	-0.00000011972000
-0.10203800000000	-0.00000008496500
-0.06121100000000	-0.00000001629900
-0.02040100000000	0.00000002135400
0.02041700000000	0.00000006423500
0.06123100000000	0.00000011340300
0.10204800000000	0.00000015669400
0.14287100000000	0.00000021995200
0.18367900000000	0.00000027710700
0.22450000000000	0.00000033687300
0.26532000000000	0.00000040924000
0.30613000000000	0.00000048165600
0.34695000000000	0.00000055692500
0.38776700000000	0.00000063681400
0.42857000000000	0.00000071705000
0.46938900000000	0.00000079278000
0.51019900000000	0.00000090230000
0.55102200000000	0.00000101885000
0.59184200000000	0.00000113023000
0.63265200000000	0.00000124911000
0.67347300000000	0.00000135782000
0.71429300000000	0.00000145482000
0.75510000000000	0.00000158801000
0.79592000000000	0.00000169417000
0.83673300000000	0.00000181636000
0.87755300000000	0.00000193069000
0.91836900000000	0.00000206581000
0.95918300000000	0.00000221380000
0.99999800000000	0.00000233510000
1.00000000000000	0.00000230031000
0.95918100000000	0.00000211845000
0.91837000000000	0.00000202228000
0.87754800000000	0.00000190329000
0.83672700000000	0.00000178195000
0.79592100000000	0.00000164135000
0.75510100000000	0.00000153031000
0.71428900000000	0.00000143007000
0.67346900000000	0.00000129565000
0.63265200000000	0.00000120043000
0.59183900000000	0.00000109543000
0.55102200000000	0.00000097913000
0.51020300000000	0.00000088822000
0.46939000000000	0.00000078211000
0.42857200000000	0.00000069433000
0.38776300000000	0.00000059900000
0.34693900000000	0.00000052189400
0.30611800000000	0.00000043445100
0.26530700000000	0.00000035295300
0.22448900000000	0.00000027799100
0.18365800000000	0.00000019714100
0.14285700000000	0.00000014550400
0.10203400000000	0.00000008283500
0.06121300000000	0.00000002854300
0.02040500000000	-0.00000001310700
-0.02040900000000	-0.00000003624500
-0.06122700000000	-0.00000011987000
-0.10204600000000	-0.00000017665200
-0.14287100000000	-0.00000024195300
-0.18367400000000	-0.00000030029300
-0.22449900000000	-0.00000039142800
-0.26532700000000	-0.00000049653100
-0.30612700000000	-0.00000058753900
-0.34693700000000	-0.00000069439000
-0.38776000000000	-0.00000083001000
-0.42856900000000	-0.00000102668000
-0.46939100000000	-0.00000121734000
-0.51019800000000	-0.00000146868000
-0.55102300000000	-0.00000177819000
-0.59184100000000	-0.00000218309000
-0.63265200000000	-0.00000272647000
-0.67347000000000	-0.00000351213000
-0.71429100000000	-0.00000469399000
-0.75510100000000	-0.00000662496000
-0.79592200000000	-0.00000987985000
-0.83672800000000	-0.00001550580000
-0.87755100000000	-0.00002554400000
-0.91837100000000	-0.00004322000000
-0.95917400000000	-0.00007388910000
-1.00000000000000	-0.00012557000000
